Name,Event,Equipment,Age,Sex,Division,BodyweightKg,WeightClassKg,Squat1Kg,Squat2Kg,Squat3Kg,Squat4Kg,Best3SquatKg,Bench1Kg,Bench2Kg,Bench3Kg,Bench4Kg,Best3BenchKg,Deadlift1Kg,Deadlift2Kg,Deadlift3Kg,Deadlift4Kg,Best3DeadliftKg,TotalKg,Place,Country
Jennifer Milliron-O'Neil,SBD,Multi-ply,40,F,M1,74.8,75,-200.5,200.5,,,200.5,-140,140,144,155,144,180,195,205,,205,549.5,1,Ireland
Jonathan Bar,SBD,Multi-ply,20,M,J,60.45,67.5,-150,150,-157.5,,150,92.5,-97.5,,,92.5,-175,-175,-175,,,,DQ,France
Nicky Norris,SBD,Multi-ply,26,M,O,72.25,75,-245,245,-270,,245,-202.5,-202.5,-202.5,,,,,,,,,DQ,Finland
Marko Loponen,SBD,Multi-ply,34,M,O,89.25,90,-285,290,-302.5,,290,230,-240,-240,,230,260,-285,-285,,260,780,1,Finland
Pasi Koukkula,SBD,Multi-ply,45,M,M2,89.9,90,255,,,,255,100,,,,100,275,305.5,,,305.5,660.5,1,Finland
Jordan Grimes,SBD,Multi-ply,28,M,O,98.35,100,320,350,370,,370,210,-225,-225,,210,280,305,,,305,885,1,UK
Martin Hurdálek,SBD,Multi-ply,37,M,O,96.1,100,300,320,-330,,320,220,240,-250,,240,240,250,-260,,250,810,1,Czechia
Michal Červinka,SBD,Multi-ply,56,M,M4,90.3,100,235,245,-255,,245,130,140,-150,,140,220,240,-252.5,,240,625,1,Slovakia
Juha Märsylä,SBD,Multi-ply,37,M,O,110,110,370,385,-400,,385,-305,-315,-315,,,,,,,,,DQ,Finland
Sami Kaipio,SBD,Multi-ply,52,M,O,106.4,110,-410,-410,-410,,,,,,,,,,,,,,DQ,Finland
Dean Caldwell,SBD,Multi-ply,41,M,M1,102,110,295,310,-317.5,,310,-190,-190,-190,,,,,,,,,DQ,UK
Jarkko Holviala,SBD,Multi-ply,45,M,M2,105.8,110,250,260,275,,275,150,160,165,,165,200,230,-240,,230,670,1,Finland
Libor Hurdálek,SBD,Multi-ply,61,M,M5,101,110,230,256,260,,260,145,155,160,,160,200,215,225,,225,645,1,Czechia
Ján Velgos,SBD,Multi-ply,15,M,T1,120.3,125,260,270,-280,,270,230,240,245,250,245,200,215,220,,220,735,1,Slovakia
Eric Bar,SBD,Multi-ply,47,M,M2,123.6,125,-240,240,255,,255,-220,-220,-220,,,,,,,,,DQ,France
Lee Marshall,SBD,Multi-ply,57,M,M4,120.3,125,300,320,330,340,330,170,175,180,,180,-300,300,320,,320,830,1,UK
Elena Mladenovic,D,Multi-ply,23,F,J,74.1,75,,,,,,,,,,,130,150,160,170,160,160,1,Serbia
Jonathan Bar,D,Multi-ply,19,M,T3,59.9,60,,,,,,,,,,,160,170,-180,,170,170,1,France
Aleksandar Tošić,D,Multi-ply,22,M,J,74.4,75,,,,,,,,,,,-130,140,170,,170,170,1,Serbia
Toni Haaparanta,D,Multi-ply,42,M,M1,73.78,75,,,,,,,,,,,235,242.5,-250,,242.5,242.5,1,Finland
Ivan Stanković,D,Multi-ply,41,M,M1,74.85,75,,,,,,,,,,,220,-240,,,220,220,1,Serbia
Jaroslav Tomanec,D,Multi-ply,73,M,M7,81.8,82.5,,,,,,,,,,,150,160,162.5,,162.5,162.5,1,Czechia
Kalle Räsänen,D,Multi-ply,25,M,O,89.85,90,,,,,,,,,,,340,-355,,,340,340,1,Finland
Dalibor Ilijić,D,Multi-ply,37,M,O,89.05,90,,,,,,,,,,,230,250,270,,270,270,1,Serbia
Nikola Reljić,D,Multi-ply,27,M,O,88.05,90,,,,,,,,,,,180,200,220,,220,220,1,Serbia
Pasi Koukkula,D,Multi-ply,45,M,M2,89.4,90,,,,,,,,,,,270,-300,-300,,270,270,1,Finland
Miliza Antić,D,Multi-ply,46,M,M2,90,90,,,,,,,,,,,180,,,,180,180,1,Serbia
Michal Cevinka,D,Multi-ply,56,M,M4,89.25,90,,,,,,,,,,,220,-237.5,,,220,220,1,Slovakia
Jordan Grimes,D,Multi-ply,28,M,O,99.35,100,,,,,,,,,,,272.5,300,315,,315,315,1,UK
Teemu Alaharju-Somppi,D,Multi-ply,38,M,O,96.65,100,,,,,,,,,,,280,-300,-300,,280,280,1,Finland
Fabrice Banchabanne,D,Multi-ply,44,M,M1,96.5,100,,,,,,,,,,,250,265,270,,270,270,1,France
Jorma Kuukasjärvi,D,Multi-ply,50,M,M3,96.05,100,,,,,,,,,,,250,260,270,,270,270,1,Finland
David Thomas #4,D,Multi-ply,64,M,M5,98.8,100,,,,,,,,,,,140,155,,,155,155,1,UK
Piippola Esa Tapani,D,Multi-ply,27,M,O,105.3,110,,,,,,,,,,,280,300,310,317.5,310,310,1,Finland
Miikka Joensuu,D,Multi-ply,25,M,O,103,110,,,,,,,,,,,250,290,-306,,290,290,1,Finland
Jussi Tuomela,D,Multi-ply,29,M,O,108.2,110,,,,,,,,,,,-280,280,-302.5,,280,280,1,Finland
Lajos Bán,D,Multi-ply,39,M,O,104.6,110,,,,,,,,,,,240,255,-265,,255,255,1,Hungary
Ľubomír Trstenský,D,Multi-ply,41,M,M1,109.5,110,,,,,,,,,,,230,240,,,240,240,1,Slovakia
Hervé Phinera,D,Multi-ply,43,M,M1,115.8,125,,,,,,,,,,,270,-290,-290,,270,270,1,France
Eric Bar,D,Multi-ply,47,M,M2,125.2,140,,,,,,,,,,,250,260.5,-265,,260.5,260.5,1,France
Arto Joronen,D,Multi-ply,50,M,M3,153.7,140+,,,,,,,,,,,220,240,-255,,240,240,1,Finland
Bettina Razzouki-Korkis,B,Raw,50,F,M3,53.65,56,,,,,,57.5,62.5,65,-67.5,65,,,,,,65,1,Poland
Lisa Farrelly,B,Raw,28,F,O,59.05,60,,,,,,60,62.5,-65,,62.5,,,,,,62.5,1,Ireland
Hanna Turtiainen,B,Raw,30,F,O,62.15,67.5,,,,,,100,105,-107.5,,105,,,,,,105,1,Finland
Jaana Kivela,B,Raw,44,F,M1,62.1,67.5,,,,,,62.5,67.5,-68,-68,67.5,,,,,,67.5,1,Finland
Lydie Pons,B,Raw,65,F,M6,67.05,67.5,,,,,,65,67.5,72,73,72,,,,,,72,1,France
Veera Hiltunen,B,Raw,20,F,J,75,75,,,,,,72.5,-77.5,-77.5,,72.5,,,,,,72.5,1,Finland
Clare Saxton,B,Raw,36,F,O,72.8,75,,,,,,70,77.5,80,,80,,,,,,80,1,UK
Mia Salminen,B,Raw,42,F,M1,72.15,75,,,,,,82.5,92.5,95,,95,,,,,,95,1,Finland
Virpi Knuutila,B,Raw,48,F,M2,74.4,75,,,,,,100,110,115,-117.5,115,,,,,,115,1,Finland
Annjanette Saunders,B,Raw,46,F,M2,69.35,75,,,,,,65,70,75,,75,,,,,,75,1,UK
Maiju Hilander,B,Raw,58,F,M4,72.8,75,,,,,,50,-60,60,,60,,,,,,60,1,Finland
Virpi Pukkila,B,Raw,48,F,M2,77.7,82.5,,,,,,82.5,92.5,102.5,-105,102.5,,,,,,102.5,1,Finland
Minna Pajulahti,B,Raw,35,F,O,83.7,90,,,,,,105,-115,,,105,,,,,,105,1,Finland
Krisse Tuominen,B,Raw,35,F,O,96,110,,,,,,80,-87.5,-87.5,,80,,,,,,80,1,Finland
Péter Dobos,B,Raw,30,M,O,57.35,60,,,,,,57.5,65,-67.5,,65,,,,,,65,1,Hungary
Patryk Strzałek,B,Raw,15,M,T1,61.3,67.5,,,,,,65,-70,70,,70,,,,,,70,1,Poland
Antti Naukkarinen,B,Raw,33,M,O,66.4,67.5,,,,,,120,127.5,132.5,-135.5,132.5,,,,,,132.5,1,Finland
Mikko Salla,B,Raw,27,M,O,67,67.5,,,,,,-122.5,-122.5,-122.5,,,,,,,,,DQ,Finland
Zia Mirza,B,Raw,59,M,M4,67.1,67.5,,,,,,102.5,115,117.5,,117.5,,,,,,117.5,1,UK
Hans Klein,B,Raw,74,M,M7,65.8,67.5,,,,,,95,100,102.5,105,102.5,,,,,,102.5,1,Germany
Sami Kostet,B,Raw,18,M,T3,72.6,75,,,,,,135,-146,146,150,146,,,,,,146,1,Finland
Lukáš Vašíček,B,Raw,21,M,J,73.5,75,,,,,,110,120,-125,,120,,,,,,120,1,Czechia
Niko Kaipainen,B,Raw,27,M,O,74.95,75,,,,,,150,155,165,,165,,,,,,165,1,Finland
Samuli Brunfeldt,B,Raw,25,M,O,74.9,75,,,,,,140,-150,,,140,,,,,,140,1,Finland
Mikko Lompolo,B,Raw,35,M,O,70.3,75,,,,,,110,115,-125,,115,,,,,,115,1,Finland
Boško Stamenkovski,B,Raw,45,M,M2,73.15,75,,,,,,120,125,130,,130,,,,,,130,1,
József Németh,B,Raw,58,M,M4,72.55,75,,,,,,100,110,112.5,,112.5,,,,,,112.5,1,Hungary
Jacky Dubus,B,Raw,55,M,M4,71.75,75,,,,,,-105,105,-110,,105,,,,,,105,1,France
Joannis Sulime,B,Raw,64,M,M5,75,75,,,,,,107.5,113,-115,,113,,,,,,113,1,France
Soheel Zia,B,Raw,35,M,O,81.5,82.5,,,,,,120,130,132.5,,132.5,,,,,,132.5,1,UK
Heikki Kulppi,B,Raw,25,M,O,81.95,82.5,,,,,,130,-140,-140,,130,,,,,,130,1,Finland
Gatis Biezais,B,Raw,40,M,M1,82.15,82.5,,,,,,167.5,172.5,175,-181,175,,,,,,175,1,Latvia
Robert Tomáš,B,Raw,43,M,M1,82.5,82.5,,,,,,137.5,-145,145,,145,,,,,,145,1,Czechia
Bill Healy,B,Raw,66,M,M6,81.2,82.5,,,,,,130,140,-150,,140,,,,,,140,1,Ireland
Ondřej Kohout,B,Raw,16,M,T2,83.45,90,,,,,,105,-120,120,,120,,,,,,120,1,Czechia
Tommi Rannila,B,Raw,22,M,J,89.6,90,,,,,,180,-192.5,-192.5,,180,,,,,,180,1,Finland
Topi Innanen,B,Raw,20,M,J,90,90,,,,,,150,160,-167.5,,160,,,,,,160,1,Finland
Ville Sieppi,B,Raw,28,M,O,89.85,90,,,,,,190,200,-205,,200,,,,,,200,1,Finland
Robert Kanclerz,B,Raw,38,M,O,89.65,90,,,,,,185,192.5,-195,,192.5,,,,,,192.5,1,Poland
Łukasz Kozłowski,B,Raw,30,M,O,86.1,90,,,,,,182.5,190,-200,,190,,,,,,190,1,Poland
Rami Leiviskä,B,Raw,37,M,O,88.9,90,,,,,,175,185,-197.5,,185,,,,,,185,1,Finland
Vesa Partala,B,Raw,36,M,O,85.1,90,,,,,,175,-190,-190,,175,,,,,,175,1,Finland
Nikola Reljić,B,Raw,27,M,O,89.05,90,,,,,,155,-165,-170,,155,,,,,,155,1,Serbia
Przemyslaw Komarski,B,Raw,30,M,O,89.9,90,,,,,,-150,-150,-150,,,,,,,,,DQ,Poland
Marko Brusila,B,Raw,47,M,M2,88.55,90,,,,,,170,-180,-180,,170,,,,,,170,1,Finland
Luc Grandjean,B,Raw,50,M,M3,88.8,90,,,,,,110,120,-127.5,,120,,,,,,120,1,France
Jorma Lempinen,B,Raw,65,M,M6,89.05,90,,,,,,155,162.5,167.5,170,167.5,,,,,,167.5,1,Finland
Aimo Mursu,B,Raw,73,M,M7,83,90,,,,,,70,-80,80,,80,,,,,,80,1,Finland
Patrik Till,B,Raw,19,M,T3,93.65,100,,,,,,-140,140,150,,150,,,,,,150,1,Czechia
Atte Poikonen,B,Raw,34,M,O,98.6,100,,,,,,-225,225,227.5,,227.5,,,,,,227.5,1,Finland
Heikki Korkalo,B,Raw,30,M,O,100,100,,,,,,160,180,-195,,180,,,,,,180,1,Finland
Stanislav Tůma,B,Raw,39,M,O,99.7,100,,,,,,170,-180,,,170,,,,,,170,1,Czechia
Anthony Gendron,B,Raw,31,M,O,95.15,100,,,,,,155,-160,-160,,155,,,,,,155,1,France
Mikko Mäntymäki,B,Raw,44,M,M1,97.8,100,,,,,,140,145,-150,,145,,,,,,145,1,Finland
Mirosław Borkowski,B,Raw,52,M,M3,98.95,100,,,,,,125,132.5,140,,140,,,,,,140,1,Poland
Franciszek Szabluk,B,Raw,59,M,M4,96.75,100,,,,,,145,155,165,,165,,,,,,165,1,Poland
Vladimír Svoboda,B,Raw,63,M,M5,91.5,100,,,,,,110,115,120,,120,,,,,,120,1,Czechia
Patrice Belmir,B,Raw,62,M,M5,92.25,100,,,,,,-95,95,-105,,95,,,,,,95,1,France
Didier Douet,B,Raw,64,M,M5,98.4,100,,,,,,-110,-110,-110,,,,,,,,,DQ,France
Marc Assirelli,B,Raw,67,M,M6,97.05,100,,,,,,130,138,-140,,138,,,,,,138,1,France
Lauri Marttila,B,Raw,25,M,O,101.5,110,,,,,,200,210,215,,215,,,,,,215,1,Finland
Henry Lehtola,B,Raw,34,M,O,108.6,110,,,,,,215,-222.5,-222.5,,215,,,,,,215,1,Finland
Topi Frifeldt,B,Raw,34,M,O,109.8,110,,,,,,205,215,-217.5,,215,,,,,,215,1,Finland
Krzysztof Zakrzewski,B,Raw,38,M,O,102.4,110,,,,,,195,202.5,-212.5,,202.5,,,,,,202.5,1,Poland
Jani Suopanki,B,Raw,32,M,O,101.9,110,,,,,,160,180,192.5,,192.5,,,,,,192.5,1,Finland
Joni Kivelä,B,Raw,26,M,O,103.9,110,,,,,,185,190,-195,,190,,,,,,190,1,Finland
Lajos Bán,B,Raw,39,M,O,104.9,110,,,,,,145,155,157.5,,157.5,,,,,,157.5,1,Hungary
Rami Haaparanta,B,Raw,40,M,M1,103.8,110,,,,,,190,200,-207.5,,200,,,,,,200,1,Finland
Dominique Nussbaum,B,Raw,44,M,M1,110,110,,,,,,190,200,-207.5,,200,,,,,,200,1,France
Milan Kohout,B,Raw,43,M,M1,109.5,110,,,,,,170,180,-190,,180,,,,,,180,1,Czechia
Richard Riso,B,Raw,45,M,M2,109.1,110,,,,,,150,-160,-160,,150,,,,,,150,1,France
Vesa Keskimaa,B,Raw,53,M,M3,109.4,110,,,,,,190,210,-215,,210,,,,,,210,1,Finland
Juha Pukkila,B,Raw,52,M,M3,102.5,110,,,,,,125,-135,140,,140,,,,,,140,1,Finland
Hermann Haraldsson,B,Raw,56,M,M4,102.9,110,,,,,,165,-172.5,-172.5,,165,,,,,,165,1,Iceland
Robert Brasseur,B,Raw,55,M,M4,109.2,110,,,,,,140,150,-155,,150,,,,,,150,1,France
Todd Marquis,B,Raw,36,M,O,120.4,125,,,,,,225,235,-242.5,,235,,,,,,235,1,UK
Hannu Koskinen,B,Raw,34,M,O,115.5,125,,,,,,207.5,217.5,-227.5,,217.5,,,,,,217.5,1,Finland
Matias Neuvonen,B,Raw,28,M,O,113.3,125,,,,,,180,-190,,,180,,,,,,180,1,Finland
Pasi Mehtälä,B,Raw,43,M,M1,122.1,125,,,,,,190,205,210,,210,,,,,,210,1,Finland
Tero Ylivinkka,B,Raw,50,M,M3,124.3,125,,,,,,192.5,197.5,-200,,197.5,,,,,,197.5,1,Finland
Billy Haavisto,B,Raw,50,M,M3,116.6,125,,,,,,180,190,-197.5,,190,,,,,,190,1,Finland
Reijo Marin,B,Raw,56,M,M4,112,125,,,,,,170,180,-187.5,,180,,,,,,180,1,Finland
Aleksandar Ilić,B,Raw,23,M,J,139.6,140,,,,,,232.5,242.5,246,,246,,,,,,246,1,Serbia
Lari Tuohimaa,B,Raw,22,M,J,135.5,140,,,,,,230,-240,-245,,230,,,,,,230,1,Finland
Petri Lepistö,B,Raw,40,M,M1,139.2,140,,,,,,170,-180,-180,,170,,,,,,170,1,Finland
László Vass,B,Raw,51,M,M3,138.7,140,,,,,,180,190,195,,195,,,,,,195,1,Hungary
Ásbjörn Ólafsson,B,Raw,28,M,O,147.6,140+,,,,,,260,-270,,,260,,,,,,260,1,Iceland
Juha-Pekka Saviaro,B,Raw,30,M,O,149,140+,,,,,,190,-200,200,,200,,,,,,200,1,Finland
Petr Dubnický,B,Raw,54,M,M3,142,140+,,,,,,-165,165,-175,,165,,,,,,165,1,Czechia
Sabine Guillaume,SBD,Wraps,52,F,M3,47.85,48,90,100,105,,105,52.5,57.5,-60,,57.5,120,137.5,,,137.5,300,1,France
Dominika Heráková,SBD,Wraps,17,F,T2,47.7,48,60,-70,-75,,60,-32.5,32.5,40,,40,65,75,-80,,75,175,1,Czechia
Laura Manca,SBD,Wraps,26,F,O,51.55,52,-120,-120,-120,,,,,,,,,,,,,,DQ,UK
Deborah Johansen,SBD,Wraps,45,F,M2,51.2,52,85,-95,95,,95,50,55,-60,,55,95,105,113,115,113,263,1,UK
Lisa Farrelly,SBD,Wraps,28,F,O,56,56,-105,107.5,112.5,,112.5,60,-65,-65,,60,112.5,120,130,,130,302.5,1,Ireland
Emma Lane,SBD,Wraps,34,F,O,59.4,60,145,152.5,156,,156,65,70,-72.5,,70,155,162.5,-176,,162.5,388.5,1,UK
Bianca Voitek,SBD,Wraps,30,F,O,59.75,60,115,125,-135,,125,82.5,87.5,-91,,87.5,-135,135,-150,,135,347.5,1,Germany
Michela Garau,SBD,Wraps,26,F,O,57.95,60,105,120,125,,125,60,-70,70,,70,110,125,-135,,125,320,1,UK
Samantha Wilson #3,SBD,Wraps,27,F,O,59.15,60,102.5,110,-112.5,,110,62.5,-67.5,-67.5,,62.5,135,140,-145,,140,312.5,1,UK
Céline Corringer,SBD,Wraps,39,F,O,60,60,72.5,75,-80,,75,40,-45,-45,,40,105,110,115,,115,230,1,France
Jaana Kivela,SBD,Wraps,44,F,M1,59.05,60,-110,110,-122.5,,110,65,-67.5,-67.5,,65,120,-125,,,120,295,1,Finland
Rehana Maniar,SBD,Wraps,41,F,M1,59.8,60,100,-105,-105,,100,55,60,-62.5,,60,122.5,130,-137.5,,130,290,1,Ireland
Lesley Jayne Thomas,SBD,Wraps,50,F,M3,59.7,60,90,95,100,,100,52.5,57.5,60,,60,115,120,125,,125,285,1,UK
Nina Tiivola,SBD,Wraps,38,F,O,65.7,67.5,135,145,155,,155,80,85,-90,,85,150,160,170,,170,410,1,Finland
Maaret Kirjonen,SBD,Wraps,39,F,O,67.35,67.5,120,130,135,,135,70,75,-80,,75,155,170,-175,,170,380,1,Finland
Clare Saxton,SBD,Wraps,36,F,O,65.5,67.5,90,110,125,,125,65,72.5,77.5,,77.5,120,130,145,,145,347.5,1,UK
Annjanette Saunders,SBD,Wraps,46,F,M2,65.7,67.5,130,140,-145,,140,62.5,70,-75,,70,150,165,-175,,165,375,1,UK
Soňa Zbrehová,SBD,Wraps,17,F,T2,69.25,75,92.5,100,107.5,,107.5,52.5,58,-60,,58,110,117.5,122.5,125,122.5,288,1,Slovakia
Grace Wallace,SBD,Wraps,18,F,T3,75,75,110,120,-125,,120,52.5,-57.5,-57.5,,52.5,135,-145,-155,,135,307.5,1,UK
Auli Isopahkala,SBD,Wraps,23,F,J,73.3,75,110,130,145,,145,65,70,-75,,70,150,-170,-170,,150,365,1,Finland
Elena Mladenovic,SBD,Wraps,24,F,O,73.7,75,125,-135,145,,145,50,55,-60,,55,120,135,-150,,135,335,1,Serbia
Sanna Joutsela,SBD,Wraps,42,F,M1,73.5,75,40,60,80,,80,72.5,77.5,-82.5,,77.5,130,140,150,,150,307.5,1,Finland
Jeri Jones,SBD,Wraps,20,F,J,80.05,82.5,135,142.5,-150,,142.5,67.5,-70,72.5,,72.5,135,142.5,147.5,,147.5,362.5,1,UK
Minna Pajulahti,SBD,Wraps,35,F,O,81.5,82.5,135,150,165,,165,105,112.5,-116,,112.5,175,185,-195,,185,462.5,1,Finland
Jennifer Milliron-O'Neil,SBD,Wraps,40,F,M1,77.1,82.5,120,150,170,,170,92.5,105,115.5,,115.5,180,195,-202.5,,195,480.5,1,Ireland
Gudbjorg Inga Axelsdottir,SBD,Wraps,18,F,T3,87.3,90,-95,95,-110,,95,45,50,-52.5,,50,100,110,-115,,110,255,1,Iceland
Chloe Whylie,SBD,Wraps,25,F,O,89.5,90,190,-205,-205,,190,85,-90,-90,,85,170,185,198,,198,473,1,UK
Tania George,SBD,Wraps,46,F,M2,83.5,90,167.5,177.5,,,177.5,107.5,115,-120,,115,185,200,-207.5,,200,492.5,1,UK
Sari Anttila,SBD,Wraps,47,F,M2,88.15,90,150,160,-170,,160,95,105,-110,,105,150,165,175,,175,440,1,Finland
Emma Elonen,SBD,Wraps,29,F,O,110.1,110+,150,160.5,-165,,160.5,65,70,-77.5,,70,160,175,-182.5,,175,405.5,1,Finland
Totte Salmi,SBD,Wraps,40,M,O,55.7,56,125,135,147.5,,147.5,90,100,-105,,100,160,180,185,,185,432.5,1,Finland
Pavel Balážik,SBD,Wraps,36,M,O,53.4,56,110,125,135,,135,82.5,87.5,93,95,93,137.5,150,158,,158,386,1,Slovakia
Jerome Latscha,SBD,Wraps,39,M,O,59.85,60,145,152.5,-160,,152.5,100,-105,-105,,100,185,195,-200,,195,447.5,1,France
Juho Laitinen,SBD,Wraps,26,M,O,59.5,60,125,137.5,-145,,137.5,100,-110.5,-110.5,,100,185,195.5,200.5,205,200.5,438,1,Finland
Eemeli Karjalainen,SBD,Wraps,17,M,T2,64.9,67.5,130,-140,140,,140,80,-90,-90,,80,165,175,-182.5,,175,395,1,Finland
Sami Vaskelainen,SBD,Wraps,32,M,O,66.65,67.5,180,190,202.5,,202.5,112.5,120,122.5,,122.5,220,230,236,-240,236,561,1,Finland
Tuomas Laitinen,SBD,Wraps,29,M,O,67.45,67.5,150,170,-180,,170,110,120,122.5,,122.5,220,232.5,-237.5,,232.5,525,1,Finland
Miroslav Andreáš,SBD,Wraps,27,M,O,66.3,67.5,150,-160,,,150,90,100,-102.5,,100,160,170,,,170,420,1,Czechia
Tomi Alatalo,SBD,Wraps,45,M,M2,67.35,67.5,145,155,160,,160,100,105,107.5,,107.5,145,155,165,170,165,432.5,1,Finland
Zia Mirza,SBD,Wraps,59,M,M4,65.8,67.5,145,160,170,,170,97.5,110,115,,115,157.5,175,180,,180,465,1,UK
Esko Ketola,SBD,Wraps,74,M,M7,67,67.5,140,155,165,,165,87.5,95,-100,,95,162.5,170,,,170,430,1,Finland
Jimi Viitasaari,SBD,Wraps,17,M,T2,73.2,75,80,100,110,,110,80,-85,-85,,80,150,-170,170,,170,360,1,Finland
Antoine Caruel,SBD,Wraps,19,M,T3,74.8,75,-190,190,-205,,190,130,140,-145,,140,220,232.5,242.5,-252.5,242.5,572.5,1,France
Joni Laiho,SBD,Wraps,23,M,J,71.15,75,165,175,-180,,175,115,125,130,,130,185,200,210,,210,515,1,Finland
Lukáš Vašíček,SBD,Wraps,20,M,J,72.7,75,170,180,190,,190,110,120,-125,,120,190,200,202.5,,202.5,512.5,1,Czechia
Andrew Smith #2,SBD,Wraps,25,M,O,74.4,75,230,240,250,,250,140,150,-155,,150,240,262,-272.5,,262,662,1,UK
Tomasz Miloch,SBD,Wraps,32,M,O,74.35,75,205,215,-222.5,,215,135,140,142.5,,142.5,220,235,-242.5,,235,592.5,1,Poland
Klaus Leitman,SBD,Wraps,26,M,O,74,75,175,185,192.5,,192.5,105,-110,-115,,105,175,185,-195,,185,482.5,1,Germany
Ivan Stanković,SBD,Wraps,41,M,M1,74.45,75,225,-240,-240,240,225,115,-122.5,-122.5,,115,215,225,-251,,225,565,1,Serbia
Tuomo Somppi,SBD,Wraps,15,M,T1,99.45,100,140,-155,-160,,140,100,-117.5,-117.5,,100,160,170,-180,,170,410,1,Finland
Robert Hopkinson,SBD,Wraps,22,M,J,97.4,100,250,260,265,,265,150,160,170,,170,250,-265,-265,,250,685,1,UK
Teemu Mäkynen,SBD,Wraps,22,M,J,98.05,100,230,-250,250,,250,135,140,-145,,140,255,270,-275,,270,660,1,Finland
Ilari Ventä,SBD,Wraps,23,M,J,98.85,100,-225,-225,-225,,,,,,,,,,,,,,DQ,Finland
Mikko Korpeinen,SBD,Wraps,36,M,O,99.15,100,230,240,250,,250,150,160,-165,,160,300,320,,,320,730,1,Finland
Mikka Joensuu,SBD,Wraps,25,M,O,99.65,100,205,225,240,,240,160,170,,,170,250,280,300,,300,710,1,Finland
Henri Raekallio,SBD,Wraps,30,M,O,93.95,100,180,200,220,,220,125,130,-135,,130,230,250,-265,,250,600,1,Finland
Pekka Räihä,SBD,Wraps,34,M,O,98.45,100,220,-235,-235,,220,30,,,,30,235,260,-265,,260,510,1,Finland
Fabrice Banchabanne,SBD,Wraps,44,M,M1,97.55,100,212.5,217.5,225,,225,142.5,-150,-150,,142.5,240,250,260,,260,627.5,1,France
Leoš Herák,SBD,Wraps,47,M,M2,98.1,100,200,215,-225,,215,135,145,,,145,210,225,-230,,225,585,1,Czechia
Luboš Halenkovský,SBD,Wraps,56,M,M4,96.95,100,140,160,-167.5,,160,110,120,122.5,,122.5,180,205,-222.5,,205,487.5,1,Czechia
Vladimír Svoboda,SBD,Wraps,63,M,M5,90.7,100,145,160,-170,,160,100,110,115,,115,160,175,185,,185,460,1,Czechia
Eetu Sieppi,SBD,Wraps,21,M,J,81.35,82.5,240,255,-265,,255,150,157.5,162.5,,162.5,265,280,291,,291,708.5,1,Finland
James Young #5,SBD,Wraps,23,M,J,81.85,82.5,210,220,230,,230,150,155,-160,,155,260,270,-275,,270,655,1,UK
Fergus Crawley,SBD,Wraps,20,M,J,82.5,82.5,215,227.5,-235,,227.5,130,137.5,-140,,137.5,220,235,-242.5,,235,600,1,UK
Chris Derrick,SBD,Wraps,28,M,O,81.8,82.5,240,250,-260,,250,147.5,-155,155,,155,300,-310,,,300,705,1,UK
Tyler Lloyd #1,SBD,Wraps,24,M,O,81.65,82.5,-215,215,-220,,215,155,-160,-160,,155,-250,250,260,,260,630,1,UK
Soheel Zia,SBD,Wraps,35,M,O,81.3,82.5,177.5,200,-210,,200,120,130,-140,,130,205,-230,-230,,205,535,1,UK
Jan Lindqvist,SBD,Wraps,45,M,M2,81.95,82.5,240,260,,,260,160,170,175,,175,280,300,-305,,300,735,1,Finland
Paul George,SBD,Wraps,54,M,M3,82.15,82.5,230,250,-260,,250,115,125,130,,130,240,255,,,255,635,1,UK
Adrian Tucker,SBD,Wraps,54,M,M3,81.2,82.5,190,210,-220,,210,115,-120,120,,120,220,-235,,,220,550,1,UK
Asko Kajanoja,SBD,Wraps,55,M,M4,81.7,82.5,183,200,-220,,200,120.5,130,-135,,130,200,-220.5,,,200,530,1,Finland
Josef Kuřil,SBD,Wraps,55,M,M4,82,82.5,140,160,170,,170,90,100,,,100,170,180,185,,185,455,1,Czechia
Bill Healy,SBD,Wraps,66,M,M6,81.1,82.5,210,225,235,,235,-130,140,145,-147.5,145,215,227.5,235,,235,615,1,Ireland
Steven Sepp,SBD,Wraps,23,M,J,89.65,90,210,220,-225,,220,150,-160,-160,,150,-260,260,-270,,260,630,1,UK
Antti Pirttijarvia,SBD,Wraps,20,M,J,89.95,90,230,250,-257.5,,250,120,130,-140,,130,200,-215,-215,,200,580,1,Finland
Anssi Juntunen,SBD,Wraps,32,M,O,89.6,90,275,-290,-290,,275,165,-172.5,-172.5,,165,300,305,-310,,305,745,1,Finland
Teemu Alaharju-Somppi,SBD,Wraps,38,M,O,88.95,90,250,270,280,,280,135,150,155,,155,285,-305,-310,,285,720,1,Finland
Danny Lane,SBD,Wraps,37,M,O,88.25,90,250,265,-275,,265,160,-170,-170,,160,270,285,-300,,285,710,1,UK
Imad Bahria,SBD,Wraps,40,M,M1,89.2,90,265,280,290,,290,132.5,137.5,-142.5,,137.5,285,300,310,,310,737.5,1,France
Pasi Koukkula,SBD,Wraps,45,M,M2,89.4,90,195,-220,220,,220,100,110,117.5,,117.5,235,260.5,,,260.5,598,1,Finland
Gérard Ivars,SBD,Wraps,49,M,M2,89.35,90,215,225,230,,230,112.5,117.5,-122.5,,117.5,212.5,220,-225,,220,567.5,1,France
Jean Routalammi,SBD,Wraps,48,M,M2,89,90,-185,-185,185,,185,120,127.5,-130,,127.5,230,-247.5,,,230,542.5,1,Finland
JJ Dunne,SBD,Wraps,53,M,M3,88.75,90,225,-240,-252.5,,225,120,127.5,132.5,,132.5,220,235,-250,,235,592.5,1,Ireland
Jouko Kourumäki,SBD,Wraps,59,M,M4,89.85,90,215,225,235,,235,-140,140,-145,,140,230,245,255,,255,630,1,Finland
Peter Herák,SBD,Wraps,55,M,M4,87.65,90,210,225,230,240.5,230,110,117.5,-120,,117.5,210,225,-235,,225,572.5,1,Slovakia
Vilho Määttä,SBD,Wraps,63,M,M5,88.1,90,150,170,-180,,170,110,117.5,122.5,,122.5,190,210,220,,220,512.5,1,Finland
Marc Barnes,SBD,Wraps,21,M,J,108.9,110,290,-316,-316,,290,140,150,-155,,150,260,275,-282.5,,275,715,1,UK
Joseph O'Flanagan,SBD,Wraps,24,M,O,107,110,-240,-240,-240,,,,,,,,,,,,,,DQ,UK
Matthew Connor,SBD,Wraps,42,M,M1,108.5,110,-295,295,-310,,295,185,,,,185,260,-300,,,260,740,1,UK
Dean Caldwell,SBD,Wraps,41,M,M1,106.3,110,230,245,260,,260,130,140,150,,150,240,255,260,,260,670,1,UK
Stéphane Sana,SBD,Wraps,41,M,M1,101.2,110,160,-180,180,,180,130,-137.5,-137.5,,130,215,225,235,,235,545,1,France
Vesa Keskimaa,SBD,Wraps,53,M,M3,109,110,240,260,272.5,,272.5,195,205,207.5,,207.5,250,270,282.5,,282.5,762.5,1,Finland
Jóhann Gíslason,SBD,Wraps,56,M,M4,106.6,110,200,220,232.5,,232.5,130,137.5,140,,140,220,240,-250,,240,612.5,1,Iceland
Bachcevanidis Panajotis,SBD,Wraps,65,M,M6,104.7,110,110,120,125,,125,90,-100,100,,100,150,165,-170,,165,390,1,Czechia
Raimo Sjögren,SBD,Wraps,71,M,M7,105.2,110,155,165,-170.5,,165,70,75,80,,80,160,170,178,,178,423,1,Finland
Teemu Tulonen,SBD,Wraps,24,M,O,120.1,125,290,310,325,,325,180,190,200,,200,330,345,-355,,345,870,1,Finland
Pauli Jussila,SBD,Wraps,27,M,O,118.2,125,280,300,310,,310,220,227.5,-232.5,,227.5,320,-330,,,320,857.5,1,Finland
Alexander Clarke,SBD,Wraps,26,M,O,124.5,125,285,305,310,,310,182.5,197.5,-205,,197.5,317.5,340,-355.5,-355.5,340,847.5,1,UK
Jan Suda,SBD,Wraps,37,M,O,114.6,125,252.5,-270,277.5,,277.5,177.5,187.5,-192.5,,187.5,265,280,290,,290,755,1,Czechia
Mika Jänkä,SBD,Wraps,44,M,M1,122.6,125,270,287.5,300,,300,180,192.5,200,,200,282.5,305,-322.5,,305,805,1,Finland
Hervé Phinera,SBD,Wraps,44,M,M1,116.3,125,170,190,212.5,,212.5,130,137.5,142.5,,142.5,260,280,-290,,280,635,1,France
Eric Bar,SBD,Wraps,47,M,M2,125,125,180,-200,-205,,180,135,-142.5,,,135,230,252.5,260,,260,575,1,France
Billy Haavisto,SBD,Wraps,50,M,M3,116.1,125,250,265,272.5,,272.5,180,192.5,,,192.5,260,280,,,280,745,1,Finland
Harri Väisänen,SBD,Wraps,39,M,O,130.4,140,300,320,,,320,160,170,175,,175,290,305,-320,,305,800,1,Finland
Petri Lepistö,SBD,Wraps,40,M,M1,137.3,140,235,262.5,280,,280,165,175,177.5,,177.5,265,277.5,285,,285,742.5,1,Finland
Ryan England,SBD,Wraps,29,M,O,154,140+,290,310,330,,330,160,175,-200,,175,310,330,-350,,330,835,1,UK
Veikko Yli-Rajala,SBD,Wraps,51,M,M3,140.2,140+,225,245,260,,260,175,190,200,,200,250,282.5,300,,300,760,1,Finland
Charlotte Thomas #2,D,Raw,21,F,J,46.8,48,,,,,,,,,,,87.5,95,102.5,107.5,102.5,102.5,1,UK
Heidi Tormanen,D,Raw,22,F,J,55.5,56,,,,,,,,,,,130,140,-147.5,-147.5,140,140,1,Finland
Bettina Razzouki-Korkis,D,Raw,50,F,M3,53.65,56,,,,,,,,,,,100,-110,113.5,,113.5,113.5,1,Poland
Lisa Farrelly,D,Raw,28,F,O,59.05,60,,,,,,,,,,,122.5,127.5,132.5,,132.5,132.5,1,Ireland
Emma Lane,D,Raw,34,F,O,66.15,67.5,,,,,,,,,,,150,165,176,,176,176,1,UK
Lydie Pons,D,Raw,65,F,M6,67.05,67.5,,,,,,,,,,,105,117.5,122.5,,122.5,122.5,1,France
Katy West,D,Raw,36,F,O,74.95,75,,,,,,,,,,,145,-155,-155,,145,145,1,UK
Virpi Knuutila,D,Raw,48,F,M2,74.4,75,,,,,,,,,,,195,215,,,215,215,1,Finland
Annjanette Saunders,D,Raw,46,F,M2,69.35,75,,,,,,,,,,,155,170,-180,,170,170,1,UK
Maiju Hilander,D,Raw,58,F,M4,72.8,75,,,,,,,,,,,140,150,-155,,150,150,1,Finland
Gudbjorg Inga Axelsdottir,D,Raw,18,F,T3,88.7,90,,,,,,,,,,,110,-115,-115,,110,110,1,Iceland
Minna Pajulahti,D,Raw,35,F,O,83.7,90,,,,,,,,,,,180,187.5,200,-205,200,200,1,Finland
Satu Pesonen,D,Raw,41,F,M1,89.95,90,,,,,,,,,,,160,170,-175,,170,170,1,Finland
Chloe Wylie,D,Raw,25,F,O,94.1,110,,,,,,,,,,,180,195,203,,203,203,1,UK
Pavel Balážik,D,Raw,36,M,O,50.6,56,,,,,,,,,,,145,152.5,158,-162.5,158,158,1,Slovakia
Zia Mirza,D,Raw,59,M,M4,67.1,67.5,,,,,,,,,,,157.5,175,180,,180,180,1,UK
Lukáš Vašíček,D,Raw,20,M,J,73.5,75,,,,,,,,,,,190,205,-210,,205,205,1,Czechia
Tuomas Laitinen,D,Raw,29,M,O,72,75,,,,,,,,,,,210,220,-235,,220,220,1,Finland
Mikko Lompolo,D,Raw,35,M,O,70.3,75,,,,,,,,,,,200,210,217.5,,217.5,217.5,1,Finland
Arto Selkee,D,Raw,55,M,M4,74.4,75,,,,,,,,,,,180,190,200,,200,200,1,Finland
Jean Palicot,D,Raw,63,M,M5,73.75,75,,,,,,,,,,,145,160,-165,,160,160,1,France
Patrik Tomáš,D,Raw,20,M,J,77.85,82.5,,,,,,,,,,,210,230,-240,,230,230,1,Czechia
Matthew Belletty,D,Raw,22,M,J,81.6,82.5,,,,,,,,,,,210,-230,-230,,210,210,1,UK
Francesco LoPorto,D,Raw,35,M,O,77.4,82.5,,,,,,,,,,,250,-265,265,-275,265,265,1,Italy
Soheel Zia,D,Raw,35,M,O,81.5,82.5,,,,,,,,,,,195,217.5,230,,230,230,1,UK
Alexandre Saingery,D,Raw,27,M,O,80.9,82.5,,,,,,,,,,,215,225,-232.5,,225,225,1,France
Josef Kuřil,D,Raw,55,M,M4,81.8,82.5,,,,,,,,,,,160,180,190,,190,190,1,Czechia
Bill Healy,D,Raw,66,M,M6,81.2,82.5,,,,,,,,,,,220,230,240,,240,240,1,Ireland
Ondřej Kohout,D,Raw,16,M,T2,83.45,90,,,,,,,,,,,190,200,-210,,200,200,1,Czechia
Topi Innanen,D,Raw,20,M,J,90,90,,,,,,,,,,,245,260,-265,,260,260,1,Finland
Nikola Reljić,D,Raw,27,M,O,89.05,90,,,,,,,,,,,200,230,-250,,230,230,1,Serbia
JJ Dunne,D,Raw,53,M,M3,89.3,90,,,,,,,,,,,235,252,265,,265,265,1,Ireland
Peter Herák,D,Raw,55,M,M4,86.8,90,,,,,,,,,,,210,222.5,227.5,-230,227.5,227.5,1,Slovakia
Aimo Mursu,D,Raw,73,M,M7,83.6,90,,,,,,,,,,,165,180,190,,190,190,1,Finland
Pentti Liukonen,D,Raw,21,M,J,94.1,100,,,,,,,,,,,220,235,-240,,235,235,1,Finland
Mikko Korpeinen,D,Raw,35,M,O,99.3,100,,,,,,,,,,,300,320,-327.5,,320,320,1,Finland
Harri Peltomaa,D,Raw,33,M,O,100,100,,,,,,,,,,,320,-341,-341,,320,320,1,Finland
Seppo Junttila,D,Raw,26,M,O,98.85,100,,,,,,,,,,,240,257.5,-265,,257.5,257.5,1,Finland
Henri Raekallio,D,Raw,30,M,O,92.2,100,,,,,,,,,,,235,-255,-265,,235,235,1,Finland
Mikko Mäntymäki,D,Raw,44,M,M1,97.8,100,,,,,,,,,,,230,250,-262.5,,250,250,1,Finland
Vladimír Svoboda,D,Raw,63,M,M5,91.2,100,,,,,,,,,,,160,175,185,,185,185,1,Czechia
Miikka Joensuu,D,Raw,25,M,O,102.8,110,,,,,,,,,,,250,270,,,270,270,1,Finland
Lajos Bán,D,Raw,39,M,O,104.9,110,,,,,,,,,,,230,250,-255,,250,250,1,Hungary
Markus Koivuniemi,D,Raw,44,M,M1,108.2,110,,,,,,,,,,,270,290,-305,,290,290,1,Finland
Ahti Korkea,D,Raw,46,M,M2,100.2,110,,,,,,,,,,,240,260,,,260,260,1,Finland
Vesa Keskimaa,D,Raw,53,M,M3,109.4,110,,,,,,,,,,,,,,,,,DQ,Finland
Hermann Haraldsson,D,Raw,56,M,M4,102.9,110,,,,,,,,,,,210,225,-235,235,225,225,1,Iceland
Robert Brasseur,D,Raw,55,M,M4,109.2,110,,,,,,,,,,,-180,180,190,,190,190,1,France
Matias Neuvonen,D,Raw,28,M,O,113.3,125,,,,,,,,,,,-280,280,-290,,280,280,1,Finland
Pasi Mehtälä,D,Raw,43,M,M1,122.1,125,,,,,,,,,,,240,260,-270,,260,260,1,Finland
Ľubomír Trstenský,D,Raw,41,M,M1,110.8,125,,,,,,,,,,,-240,240,245,,245,245,1,Slovakia
Billy Haavisto,D,Raw,50,M,M3,116.6,125,,,,,,,,,,,265,280,,,280,280,1,Finland
Lee Marshall,D,Raw,57,M,M4,122,125,,,,,,,,,,,300,320,330.5,,330.5,330.5,1,UK
Petri Lepistö,D,Raw,40,M,M1,139.2,140,,,,,,,,,,,270,280,287.5,,287.5,287.5,1,Finland
Jonne Illikainen,D,Raw,25,M,O,143.9,140+,,,,,,,,,,,370,390,-400.5,,390,390,1,Finland
Aleksandar Stanković,D,Raw,33,M,O,143.9,140+,,,,,,,,,,,320,340,355,,355,355,1,Serbia
Brandon Lilly,D,Raw,34,M,O,151.4,140+,,,,,,,,,,,320,-330,,,320,320,G,USA
Virpi Pukkila,B,Multi-ply,48,F,O,74.85,75,,,,,,145,-152.5,-155,,145,,,,,,145,1,Finland
Krysztof Wolszczak,B,Multi-ply,31,M,O,66.85,67.5,,,,,,110,-125,-125,,110,,,,,,110,1,Poland
Hans Klein,B,Multi-ply,74,M,M7,66.5,67.5,,,,,,105,110,115,,115,,,,,,115,1,Germany
Aleksandar Tošić,B,Multi-ply,22,M,J,74.4,75,,,,,,90,-100,-100,,90,,,,,,90,1,Serbia
Niko Kaipainen,B,Multi-ply,27,M,O,74.85,75,,,,,,-205,-205,210,,210,,,,,,210,1,Finland
Toni Haaparanta,B,Multi-ply,42,M,M1,73.75,75,,,,,,-192.5,-197.5,-202.5,,,,,,,,,DQ,Finland
Joannis Sulime,B,Multi-ply,64,M,M5,73.9,75,,,,,,122.5,-127.5,-127.5,,122.5,,,,,,122.5,1,France
Vesa Partala,B,Multi-ply,36,M,O,82.05,82.5,,,,,,250,270,,,270,,,,,,270,1,Finland
Andrija Simonović,B,Multi-ply,24,M,O,82.4,82.5,,,,,,192.5,-200,200,,200,,,,,,200,1,Serbia
Saša Antić,B,Multi-ply,44,M,M1,77.05,82.5,,,,,,120,-150,150,,150,,,,,,150,1,Serbia
Nikola Reljić,B,Multi-ply,27,M,O,88.5,90,,,,,,150,,,,150,,,,,,150,1,Serbia
Kalle Räsänen,B,Multi-ply,25,M,O,89.85,90,,,,,,-315,-325,-330,,,,,,,,,DQ,Finland
Dalibor Ilijić,B,Multi-ply,37,M,O,89.05,90,,,,,,-281,-285,-285,,,,,,,,,DQ,Serbia
Milija Antić,B,Multi-ply,45,M,M2,90,90,,,,,,120,160,170,,170,,,,,,170,1,Serbia
Luc Grandjean,B,Multi-ply,50,M,M3,88.9,90,,,,,,-150,-150,150,,150,,,,,,150,1,France
Tomáš Kríž,B,Multi-ply,23,M,J,97.6,100,,,,,,250,260,270,-285.5,270,,,,,,270,1,Slovakia
Heikki Tyrväinen,B,Multi-ply,35,M,O,99.5,100,,,,,,275,-290,290,,290,,,,,,290,1,Finland
Dawid Deptuch,B,Multi-ply,29,M,O,92.65,100,,,,,,220,-240,-245,,220,,,,,,220,1,Poland
Seppo Junttila,B,Multi-ply,26,M,O,98.2,100,,,,,,-245,-245,-245,,,,,,,,,DQ,Finland
Rami Haaparanta,B,Multi-ply,40,M,M1,99.2,100,,,,,,320,-335,-335,,320,,,,,,320,1,Finland
Kim Päivöke,B,Multi-ply,43,M,M1,92.7,100,,,,,,65,-265,-265,,65,,,,,,65,1,Finland
Jorma Kuukasjärvi,B,Multi-ply,50,M,M3,96.05,100,,,,,,210,220,-230.5,,220,,,,,,220,1,Finland
Franciszek Szabluk,B,Multi-ply,59,M,M4,95.9,100,,,,,,200,-210,215,,215,,,,,,215,1,Poland
David Thomas #4,B,Multi-ply,64,M,M5,98.8,100,,,,,,90,122.5,127.5,,127.5,,,,,,127.5,1,UK
Ján Matej,B,Multi-ply,68,M,M6,93,100,,,,,,145,155,-162.5,,155,,,,,,155,1,Slovakia
Andrew Saunders,B,Multi-ply,48,M,M2,101.2,110,,,,,,225,240,-275,,240,,,,,,240,1,UK
Richard Riso,B,Multi-ply,45,M,M2,109.2,110,,,,,,220,-237.5,-242.5,,220,,,,,,220,1,France
Reijo Marin,B,Multi-ply,56,M,M4,101.4,110,,,,,,200,210,,,210,,,,,,210,1,Finland
Ulrich Vetter,B,Multi-ply,64,M,M5,107.8,110,,,,,,180,-192.5,-192.5,,180,,,,,,180,1,Germany
Ján Velgos,B,Multi-ply,15,M,T1,120.2,125,,,,,,235,245,250,255,250,,,,,,250,1,Slovakia
Mirosław Zakrzewski,B,Multi-ply,42,M,M1,117.8,125,,,,,,270,280,-290,,280,,,,,,280,1,Poland
Hervé Phinera,B,Multi-ply,43,M,M1,115.8,125,,,,,,175,182.5,185,,185,,,,,,185,1,France
Antti Ruonaniemi,B,Multi-ply,40,M,M1,121,125,,,,,,-280,-302.5,-302.5,,,,,,,,,DQ,Finland
Juha Kokkonen,B,Multi-ply,50,M,M3,133,140,,,,,,282.5,300,-310,,300,,,,,,300,1,Finland
