Division,WeightClassKg,Place,Name,Team,BodyweightKg,Best3SquatKg,Best3BenchKg,Best3DeadliftKg,TotalKg,Equipment,Event,Sex
Girls,44.23,1,Shania Dies,Bridge City,43.82,99.79,36.29,95.25,231.33,Single-ply,SBD,F
Girls,44.23,2,Alaina Stewart,Splendora,44.18,61.23,29.48,79.38,170.1,Single-ply,SBD,F
Girls,44.23,3,Erin Blazek,Splendora,42.86,63.5,29.48,61.23,154.22,Single-ply,SBD,F
Girls,44.23,DQ,Bret King #1,Hamshire-Fannett,43.95,81.65,,,,Single-ply,SBD,F
Girls,44.23,DQ,Criselda Serna,Freeport Brazosport,44,,,,,Single-ply,SBD,F
Girls,44.23,DQ,Carmen Guzman,Hamshire-Fannett,44.18,,,,,Single-ply,SBD,F
Girls,44.23,DQ,Chardae Watkins,Liberty,42.55,,,,,Single-ply,SBD,F
Girls,47.85,1,Marisol Contreras,Cleveland,46.9,111.13,52.16,122.47,285.76,Single-ply,SBD,F
Girls,47.85,2,Megan Elkins,Needville,46.99,104.33,47.63,104.33,256.28,Single-ply,SBD,F
Girls,47.85,3,Brittany Zwahr,Needville,47.08,83.91,40.82,106.59,231.33,Single-ply,SBD,F
Girls,47.85,4,Alexis Holt,West Orange-Stark,47.85,97.52,40.82,88.45,226.8,Single-ply,SBD,F
Girls,47.85,5,Hailey Zigal,Splendora,47.36,65.77,29.48,83.91,179.17,Single-ply,SBD,F
Girls,47.85,DQ,Pasche Malone,Shepherd,47.85,79.38,,,,Single-ply,SBD,F
Girls,47.85,DQ,Jessica Price #2,Cleveland,47.81,,,,,Single-ply,SBD,F
Girls,47.85,DQ,Kendra Campbell,Splendora,46.72,,,,,Single-ply,SBD,F
Girls,51.94,1,Olivia Ansley,Shepherd,50.48,111.13,61.23,115.67,288.03,Single-ply,SBD,F
Girls,51.94,2,Savannah Day,Hamshire-Fannett,51.35,113.4,72.57,102.06,288.03,Single-ply,SBD,F
Girls,51.94,3,Marisa Duke,Splendora,50.39,106.59,49.9,120.2,276.69,Single-ply,SBD,F
Girls,51.94,4,Abigail Courvelle,Shepherd,51.94,104.33,54.43,113.4,272.16,Single-ply,SBD,F
Girls,51.94,5,Mercedez Gonzalez,Needville,51.85,108.86,49.9,108.86,267.62,Single-ply,SBD,F
Girls,51.94,6,Roberta Sanchez,Shepherd,50.71,99.79,47.63,111.13,258.55,Single-ply,SBD,F
Girls,51.94,7,Jordan Alford,Splendora,51.44,102.06,47.63,106.59,256.28,Single-ply,SBD,F
Girls,51.94,8,Ava Higginbothom,Splendora,49.49,97.52,43.09,113.4,254.01,Single-ply,SBD,F
Girls,51.94,9,Lark Walker,Liberty,50.8,97.52,36.29,92.99,226.8,Single-ply,SBD,F
Girls,51.94,DQ,Bronwyn Culton,Liberty,51.71,,,,,Single-ply,SBD,F
Girls,56.02,1,Alexis Bradford,Shepherd,54.84,142.88,61.23,138.35,342.46,Single-ply,SBD,F
Girls,56.02,2,Kaylee Lewis,Splendora,54.39,102.06,56.7,136.08,294.84,Single-ply,SBD,F
Girls,56.02,3,Kristina Turner,Cleveland,55.88,92.99,49.9,117.93,260.82,Single-ply,SBD,F
Girls,56.02,4,Madison Taylor #4,Orangefield,54.43,102.06,43.09,113.4,258.55,Single-ply,SBD,F
Girls,56.02,5,Krista Wheeler,Orangefield,54.7,92.99,45.36,113.4,251.74,Single-ply,SBD,F
Girls,56.02,6,Maddie Brown,Splendora,55.66,83.91,52.16,102.06,238.14,Single-ply,SBD,F
Girls,56.02,7,Cynthia Espinoza,Cleveland,55.34,88.45,34.02,106.59,229.06,Single-ply,SBD,F
Girls,56.02,DQ,Kirsten Despain,Cleveland Tarkington,55.25,,,,,Single-ply,SBD,F
Girls,56.02,DQ,Kaite Vacek,Needville,54.75,102.06,43.09,,,Single-ply,SBD,F
Girls,56.02,DQ,Frances Ajaero,Stafford,55.25,,,,,Single-ply,SBD,F
Girls,60.1,1,Michaela Dearing,Orange Little Cypress-Mauriceville,58.24,136.08,79.38,145.15,360.61,Single-ply,SBD,F
Girls,60.1,2,Alyssa Patterson,Shepherd,58.6,142.88,72.57,142.88,358.34,Single-ply,SBD,F
Girls,60.1,3,Birdie Duty,Needville,59.15,140.61,68.04,129.27,337.93,Single-ply,SBD,F
Girls,60.1,4,Kaitlyn Gans,Sour Lake Hardin-Jefferson,58.51,113.4,56.7,145.15,315.25,Single-ply,SBD,F
Girls,60.1,5,Brooke Morphew,Orangefield,58.01,111.13,54.43,136.08,301.64,Single-ply,SBD,F
Girls,60.1,6,Gia Williams,Hamshire-Fannett,59.28,104.33,54.43,104.33,263.08,Single-ply,SBD,F
Girls,60.1,DQ,Shelby Broussard,Hamshire-Fannett,58.47,115.67,,,,Single-ply,SBD,F
Girls,60.1,DQ,Gabriella Garza,Bay City,58.6,,,,,Single-ply,SBD,F
Girls,60.1,DQ,Courtney Price,Orange Little Cypress-Mauriceville,57.65,,,,,Single-ply,SBD,F
Girls,60.1,DQ,Dixee Earhart,Splendora,56.52,,,,,Single-ply,SBD,F
Girls,67.36,1,Heidi Jaquez,Wharton,63.23,161.03,79.38,154.22,394.63,Single-ply,SBD,F
Girls,67.36,2,Jayden White #1,Freeport Brazosport,63.37,129.27,49.9,145.15,324.32,Single-ply,SBD,F
Girls,67.36,3,Mercedez Strambler,Freeport Brazosport,67.13,111.13,72.57,140.61,324.32,Single-ply,SBD,F
Girls,67.36,4,Na'Kyra Darthard,Freeport Brazosport,66.41,117.93,58.97,140.61,317.51,Single-ply,SBD,F
Girls,67.36,5,Meagan Overstreet,Shepherd,63.14,131.54,56.7,122.47,310.71,Single-ply,SBD,F
Girls,67.36,6,Caroline Spacek,Sour Lake Hardin-Jefferson,66.77,99.79,58.97,142.88,301.64,Single-ply,SBD,F
Girls,67.36,7,Alyssa Fukuda,Bridge City,65,120.2,52.16,122.47,294.84,Single-ply,SBD,F
Girls,67.36,8,Kellcie Taylor,Cleveland Tarkington,66.13,115.67,43.09,120.2,278.96,Single-ply,SBD,F
Girls,67.36,9,Maighan Beck,Shepherd,63.37,108.86,45.36,97.52,251.74,Single-ply,SBD,F
Girls,67.36,DQ,Sh'Kayla Rogers,Orange Little Cypress-Mauriceville,67.13,,,,,Single-ply,SBD,F
Girls,67.36,DQ,Paige Manzella,Splendora,65.27,,,,,Single-ply,SBD,F
Girls,75.07,1,Mykhala Lewis,Needville,72.94,140.61,72.57,151.95,365.14,Single-ply,SBD,F
Girls,75.07,2,Crystal Garcia,Splendora,73.71,142.88,79.38,142.88,365.14,Single-ply,SBD,F
Girls,75.07,3,Hallie Brown,Hamshire-Fannett,72.89,145.15,90.72,120.2,356.07,Single-ply,SBD,F
Girls,75.07,4,Carlee Dearing,Bridge City,74.89,142.88,63.5,127.01,333.39,Single-ply,SBD,F
Girls,75.07,5,Kelly Pratt,Cleveland Tarkington,74.16,129.27,52.16,136.08,317.51,Single-ply,SBD,F
Girls,75.07,6,Skylar Hamons,Orangefield,69.94,115.67,70.31,127.01,312.98,Single-ply,SBD,F
Girls,75.07,7,Baylee Dunn,Splendora,71.08,111.13,74.84,124.74,310.71,Single-ply,SBD,F
Girls,75.07,8,Phylane Smith,Freeport Brazosport,74.39,124.74,58.97,108.86,292.57,Single-ply,SBD,F
Girls,75.07,DQ,Cami Pennington,Shepherd,72.26,124.74,,,,Single-ply,SBD,F
Girls,75.07,DQ,Ja'chyria Locks,West Orange-Stark,72.53,,,,,Single-ply,SBD,F
Girls,82.33,1,Callie Saurage,Hamshire-Fannett,81.28,174.63,113.4,170.1,458.13,Single-ply,SBD,F
Girls,82.33,2,Janna Rychlik,Needville,78.97,172.37,79.38,120.2,371.95,Single-ply,SBD,F
Girls,82.33,3,Katelyn Comeaux,Silsbee,79.15,142.88,68.04,133.81,344.73,Single-ply,SBD,F
Girls,82.33,4,Destinie Stewart,West Orange-Stark,81.19,129.27,52.16,145.15,326.59,Single-ply,SBD,F
Girls,82.33,5,Autumn Magnusson,Bridge City,76.16,127.01,58.97,120.2,306.17,Single-ply,SBD,F
Girls,82.33,6,Haley Chapman,Cleveland Tarkington,80.65,120.2,49.9,131.54,301.64,Single-ply,SBD,F
Girls,82.33,7,Samantha Hargrave,Bridge City,78.15,131.54,56.7,111.13,299.37,Single-ply,SBD,F
Girls,82.33,8,Reanah Cross,Coldspring-Oakhurst,77.56,113.4,47.63,133.81,294.84,Single-ply,SBD,F
Girls,82.33,9,Sophie Hurley,Hamshire-Fannett,77.43,115.67,56.7,108.86,281.23,Single-ply,SBD,F
Girls,82.33,DQ,Rosa Marroquin,Needville,80.2,115.67,,,,Single-ply,SBD,F
Girls,90.04,1,Ja'Tayjah Vital,West Orange-Stark,87.95,163.29,77.11,151.95,392.36,Single-ply,SBD,F
Girls,90.04,2,I'Kea Byrd,Coldspring-Oakhurst,85.55,138.35,49.9,158.76,347,Single-ply,SBD,F
Girls,90.04,3,Savannah Davey,Needville,86.95,129.27,72.57,111.13,312.98,Single-ply,SBD,F
Girls,90.04,4,Cassidy Thrash,Hamshire-Fannett,83.01,111.13,56.7,122.47,290.3,Single-ply,SBD,F
Girls,90.04,5,Xaviera Gutierrez,Wharton,88.9,120.2,47.63,115.67,283.5,Single-ply,SBD,F
Girls,90.04,DQ,Erica Gonzalez,Jasper,89.81,,,,,Single-ply,SBD,F
Girls,90.04,DQ,Bailey Cady,Orangefield,88.5,111.13,54.43,,,Single-ply,SBD,F
Girls,90.04,DQ,Mariah Bunfill,Liberty,89.45,,,,,Single-ply,SBD,F
Girls,90.04,DQ,Keili Ginsel,Hamshire-Fannett,84.37,,,,,Single-ply,SBD,F
Girls,90.04,DQ,Marissa Rodriguez,Bay City,84.5,,,,,Single-ply,SBD,F
Girls,100.02,1,Emily Warren,Bridge City,92.99,158.76,92.99,151.95,403.7,Single-ply,SBD,F
Girls,100.02,2,Victoria Martinez #4,Freeport Brazosport,93.35,138.35,79.38,129.27,347,Single-ply,SBD,F
Girls,100.02,3,Marlene Zumaya,Splendora,96.71,124.74,61.23,124.74,310.71,Single-ply,SBD,F
Girls,100.02,4,Kelby LeBlanc,Hamshire-Fannett,93.26,124.74,58.97,115.67,299.37,Single-ply,SBD,F
Girls,100.02,5,Denisha Dodis,Silsbee,90.9,113.4,56.7,124.74,294.84,Single-ply,SBD,F
Girls,100.02,6,Alyssa Rogers,Silsbee,91.35,68.04,61.23,120.2,249.48,Single-ply,SBD,F
Girls,100.02,7,Le'Shay Johnson,Cleveland,90.13,70.31,52.16,104.33,226.8,Single-ply,SBD,F
Girls,100.02,8,Kaitlinn Holyfield,Silsbee,94.35,83.91,43.09,90.72,217.72,Single-ply,SBD,F
Girls,100.02,DQ,Chloe LeJeune,Bridge City,95.03,,,,,Single-ply,SBD,F
Girls,100.02,DQ,Kaitlin Gordon,Orangefield,99.79,,,,,Single-ply,SBD,F
Girls,100.02+,1,Jordyn Bustillos,Freeport Brazosport,117.03,172.37,77.11,163.29,412.77,Single-ply,SBD,F
Girls,100.02+,2,Hilda Zumaya,Splendora,103.78,138.35,86.18,147.42,371.95,Single-ply,SBD,F
Girls,100.02+,3,Keyandra Adams,Shepherd,103.6,151.95,63.5,136.08,351.53,Single-ply,SBD,F
Girls,100.02+,4,Hannah Hill,Liberty,109.86,129.27,56.7,142.88,328.85,Single-ply,SBD,F
Girls,100.02+,5,Kayla Bell,Sour Lake Hardin-Jefferson,107.59,111.13,63.5,136.08,310.71,Single-ply,SBD,F
Girls,100.02+,6,Jacqueline Wilson,West Orange-Stark,100.24,124.74,40.82,124.74,290.3,Single-ply,SBD,F
Girls,100.02+,7,Ryann Brown,Stafford,103.15,104.33,47.63,113.4,265.35,Single-ply,SBD,F
Girls,100.02+,DQ,Andrea Rocha,Shepherd,133.72,147.42,,,,Single-ply,SBD,F
Girls,100.02+,DQ,Tikyana Harrison,Coldspring-Oakhurst,104.05,,,,,Single-ply,SBD,F
Girls,100.02+,DQ,Janal Robertson,Cleveland,113.31,,,,,Single-ply,SBD,F
