Division,WeightClassKg,Place,Name,Team,BodyweightKg,Best3SquatKg,Best3BenchKg,Best3DeadliftKg,TotalKg,Equipment,Event,Sex
Boys,55.79,1,Adam Morton,Louise,51.85,136.08,86.18,154.22,376.48,Single-ply,SBD,M
Boys,51.71,2,Rafael Sustaita,El Maton Tidehaven,51.26,102.06,63.5,122.47,288.03,Single-ply,SBD,M
Boys,51.71,3,Cody Faust,Yoakum,47.94,95.25,52.16,111.13,258.55,Single-ply,SBD,M
Boys,51.71,4,Jay Bradley,La Marque,36.79,56.7,24.95,65.77,147.42,Single-ply,SBD,M
Boys,55.79,1,Trey Marrero,Alvin,54.79,158.76,90.72,163.29,412.77,Single-ply,SBD,M
Boys,55.79,2,Rolando Ramirez,El Maton Tidehaven,53.93,154.22,83.91,131.54,369.68,Single-ply,SBD,M
Boys,59.87,3,Santiago Centono,Bay City,55.88,113.4,72.57,136.08,322.05,Single-ply,SBD,M
Boys,55.79,4,Ivan Peerez,Waller,54.16,102.06,81.65,131.54,315.25,Single-ply,SBD,M
Boys,55.79,5,Gabriel James Garcia,Yoakum,53.43,104.33,58.97,113.4,276.69,Single-ply,SBD,M
Boys,55.79,6,Jimmy Coleman,La Marque,54.75,111.13,61.23,104.33,276.69,Single-ply,SBD,M
Boys,55.79,7,Ernesto Guajard,Wharton,55.61,83.91,52.16,108.86,244.94,Single-ply,SBD,M
Boys,59.87,1,Jakob Rios,Clute Brazoswood,59.33,167.83,99.79,167.83,435.45,Single-ply,SBD,M
Boys,59.87,2,Cameron Guillen,Clute Brazoswood,57.11,151.95,79.38,151.95,383.29,Single-ply,SBD,M
Boys,59.87,3,Michael III Chomout,Yoakum,59.06,142.88,83.91,142.88,369.68,Single-ply,SBD,M
Boys,67.13,4,Caleb Ross,Clute Brazoswood,60.06,142.88,63.5,156.49,362.87,Single-ply,SBD,M
Boys,67.13,5,Dylan Billiot,La Marque,59.96,133.81,81.65,142.88,358.34,Single-ply,SBD,M
Boys,59.87,6,Jose Ramos,Bay City,59.47,131.54,72.57,142.88,347,Single-ply,SBD,M
Boys,59.87,7,Chris Taylor #7,Freeport Brazosport,59.74,129.27,68.04,136.08,333.39,Single-ply,SBD,M
Boys,59.87,8,Dominique Johnson,Beaumont Central,56.47,117.93,65.77,145.15,328.85,Single-ply,SBD,M
Boys,59.87,9,Kris Lopez,Freeport Brazosport,59.74,108.86,74.84,142.88,326.59,Single-ply,SBD,M
Boys,59.87,10,David Cedillos,Waller,58.83,102.06,74.84,136.08,312.98,Single-ply,SBD,M
Boys,59.87,11,Ryan Garza,Yoakum,56.11,92.99,70.31,136.08,299.37,Single-ply,SBD,M
Boys,67.13,1,Juan Gonzales,Yoakum,65.77,174.63,133.81,170.1,478.54,Single-ply,SBD,M
Boys,67.13,2,Ricardo Barragan,Alvin,66.41,170.1,113.4,185.97,469.47,Single-ply,SBD,M
Boys,67.13,3,Osvaldo Sardina,Danbury,66.68,154.22,102.06,195.04,451.32,Single-ply,SBD,M
Boys,67.13,4,Gerald Johnson,La Marque,63.55,170.1,92.99,183.7,446.79,Single-ply,SBD,M
Boys,67.13,5,Dijon McHenry,Beaumont Central,64.46,158.76,83.91,181.44,424.11,Single-ply,SBD,M
Boys,67.13,6,Jacob Cediux,Waller,63.64,147.42,81.65,185.97,415.04,Single-ply,SBD,M
Boys,67.13,7,Nathan Thiry,Yoakum,67,156.49,115.67,142.88,415.04,Single-ply,SBD,M
Boys,67.13,8,Jordan Aguilar,Clute Brazoswood,66.68,170.1,92.99,149.69,412.77,Single-ply,SBD,M
Boys,74.84,9,Ethan Ryman,Bay City,67.18,147.42,95.25,161.03,403.7,Single-ply,SBD,M
Boys,67.13,10,Lawerence Smith,Bay City,67.13,170.1,70.31,161.03,401.43,Single-ply,SBD,M
Boys,67.13,11,Kevin Lozano,Bay City,61.14,151.95,97.52,145.15,394.63,Single-ply,SBD,M
Boys,67.13,12,James Scott,Beaumont Central,60.28,147.42,79.38,163.29,390.09,Single-ply,SBD,M
Boys,67.13,13,David Glover,Danbury,65.73,145.15,90.72,149.69,385.55,Single-ply,SBD,M
Boys,67.13,14,Josh Rodriguez,Clute Brazoswood,64.05,149.69,79.38,151.95,381.02,Single-ply,SBD,M
Boys,67.13,15,Jarvis Roberson,Clute Brazoswood,62.87,136.08,90.72,147.42,374.21,Single-ply,SBD,M
Boys,67.13,16,Shawn Glover,Danbury,62.64,124.74,92.99,142.88,360.61,Single-ply,SBD,M
Boys,67.13,17,Zachariah Andrade,Danbury,63.78,120.2,77.11,129.27,326.59,Single-ply,SBD,M
Boys,67.13,18,Tyler Fausett,Waller,61.6,124.74,68.04,129.27,322.05,Single-ply,SBD,M
Boys,74.84,19,Corey Holmes,La Marque,67.31,129.27,63.5,120.2,312.98,Single-ply,SBD,M
Boys,67.13,20,Cheffrin Williams,Waller,63.28,90.72,56.7,127.01,274.42,Single-ply,SBD,M
Boys,74.84,1,Samuel Fisher,Bay City,71.58,204.12,124.74,210.92,539.77,Single-ply,SBD,M
Boys,74.84,2,Da'Shaun Smith,Bay City,74.84,213.19,122.47,199.58,535.24,Single-ply,SBD,M
Boys,74.84,3,Eloi Fernandez,Alvin,74.57,183.7,120.2,190.51,494.42,Single-ply,SBD,M
Boys,74.84,4,Alan Cooper,La Marque,74.57,185.97,108.86,190.51,485.34,Single-ply,SBD,M
Boys,74.84,5,Hernan Rameriz,Alvin,69.4,183.7,111.13,174.63,469.47,Single-ply,SBD,M
Boys,74.84,6,Drew Lowery,Clute Brazoswood,73.44,167.83,111.13,179.17,458.13,Single-ply,SBD,M
Boys,74.84,7,Brandon Wade,La Marque,73.75,151.95,106.59,154.22,412.77,Single-ply,SBD,M
Boys,74.84,8,Chance Glueck,Waller,72.8,127.01,79.38,172.37,378.75,Single-ply,SBD,M
Boys,82.1,9,Andrew Smith #15,Bay City,74.93,147.42,83.91,147.42,378.75,Single-ply,SBD,M
Boys,74.84,10,Herold Redo,Beaumont Central,69.17,113.4,63.5,142.88,319.78,Single-ply,SBD,M
Boys,74.84,11,Devin Gallinger,Wharton,68.04,79.38,61.23,111.13,251.74,Single-ply,SBD,M
Boys,82.1,1,John Saenz,Clute Brazoswood,80.74,249.48,117.93,192.78,560.19,Single-ply,SBD,M
Boys,82.1,2,Terrence Giles,Alvin,81.24,206.38,142.88,210.92,560.19,Single-ply,SBD,M
Boys,82.1,3,Eric Lucio,Bay City,77.66,192.78,108.86,204.12,505.76,Single-ply,SBD,M
Boys,82.1,4,Tahj Edwards,Freeport Brazosport,75.93,183.7,108.86,208.65,501.22,Single-ply,SBD,M
Boys,82.1,5,Raymond Gonzales #2,Bay City,80.29,181.44,115.67,204.12,501.22,Single-ply,SBD,M
Boys,89.81,6,Ricky Camarillo,Yoakum,82.28,183.7,115.67,174.63,474,Single-ply,SBD,M
Boys,82.1,7,Adam Cody,Waller,81.1,170.1,97.52,199.58,467.2,Single-ply,SBD,M
Boys,82.1,8,Davian Smith,Beaumont Central,81.47,165.56,129.27,167.83,462.66,Single-ply,SBD,M
Boys,82.1,9,Jerry Manning,Bay City,77.11,181.44,111.13,165.56,458.13,Single-ply,SBD,M
Boys,82.1,10,Matt Zimmerman,Yoakum,76.11,165.56,99.79,165.56,430.91,Single-ply,SBD,M
Boys,82.1,11,Brandon Hicks,Danbury,80.83,161.03,99.79,170.1,430.91,Single-ply,SBD,M
Boys,82.1,12,Nick Bell,Clute Brazoswood,76.43,151.95,104.33,158.76,415.04,Single-ply,SBD,M
Boys,82.1,13,Reginald Allison,Beaumont Central,79.65,154.22,92.99,167.83,415.04,Single-ply,SBD,M
Boys,82.1,14,Brian Doxey,Waller,81.01,145.15,70.31,167.83,383.29,Single-ply,SBD,M
Boys,82.1,15,Kolbi Foster,Clute Brazoswood,75.48,142.88,65.77,145.15,353.8,Single-ply,SBD,M
Boys,82.1,16,Ryan Gasch,Yoakum,78.2,133.81,90.72,111.13,335.66,Single-ply,SBD,M
Boys,82.1,17,Nathan Lewis,Freeport Brazosport,81.37,172.37,,,172.37,Single-ply,S,M
Boys,82.1,DQ,Caesar Olmedo,Wharton,81.01,,,,,Single-ply,S,M
Boys,99.79,1,Chris Sherrill,Bay City,90.04,276.69,158.76,226.8,662.24,Single-ply,SBD,M
Boys,99.79,2,Zach Griffin,Beaumont Central,89.99,240.4,151.95,235.87,628.23,Single-ply,SBD,M
Boys,89.81,3,Carlos García,Alvin,84.59,213.19,131.54,226.8,571.53,Single-ply,SBD,M
Boys,89.81,4,Josh Van-Sant,Waller,86.55,226.8,120.2,197.31,544.31,Single-ply,SBD,M
Boys,89.81,5,Eric Hembling,Clute Brazoswood,85.23,197.31,113.4,229.06,539.77,Single-ply,SBD,M
Boys,89.81,6,Adrian Ruiz,Bay City,88,197.31,147.42,181.44,526.17,Single-ply,SBD,M
Boys,89.81,7,Bradley Zeka,Waller,87.23,190.51,122.47,192.78,505.76,Single-ply,SBD,M
Boys,89.81,8,Matthew Morales,Bay City,85.91,183.7,102.06,195.04,480.81,Single-ply,SBD,M
Boys,89.81,9,Jarett Baker,Wharton,88.09,151.95,129.27,185.97,467.2,Single-ply,SBD,M
Boys,89.81,10,David Eudoxie,Clute Brazoswood,87.32,163.29,102.06,172.37,437.72,Single-ply,SBD,M
Boys,89.81,11,Justin Britton,La Marque,83.28,136.08,111.13,163.29,410.5,Single-ply,SBD,M
Boys,89.81,12,Javonte Dawson,Wharton,84.37,120.2,92.99,158.76,371.95,Single-ply,SBD,M
Boys,109.77,1,JR Rodriguez,Bay City,99.97,272.16,138.35,210.92,621.42,Single-ply,SBD,M
Boys,99.79,2,Stevan Gonzalvez,Clute Brazoswood,97.61,254.01,145.15,210.92,610.08,Single-ply,SBD,M
Boys,99.79,3,Corcy Green,Freeport Brazosport,99.34,224.53,158.76,206.38,589.67,Single-ply,SBD,M
Boys,99.79,4,Jadon Morales,Bay City,93.53,213.19,149.69,206.38,569.26,Single-ply,SBD,M
Boys,99.79,5,Richy Ortiz,Bay City,99.79,210.92,133.81,215.46,560.19,Single-ply,SBD,M
Boys,99.79,6,Zach Day,Waller,95.35,185.97,108.86,183.7,478.54,Single-ply,SBD,M
Boys,99.79,7,Nathan Weaver,Clute Brazoswood,93.49,188.24,115.67,142.88,446.79,Single-ply,SBD,M
Boys,99.79,8,Carlos Velasquez,Wharton,94.8,142.88,111.13,172.37,426.38,Single-ply,SBD,M
Boys,99.79,9,Zach Laus,Wharton,91.17,142.88,115.67,142.88,401.43,Single-ply,SBD,M
Boys,99.79,10,Luke MacClennan,Bay City,96.75,158.76,90.72,151.95,401.43,Single-ply,SBD,M
Boys,99.79,11,Ian Bolden,Waller,97.11,151.95,79.38,156.49,387.82,Single-ply,SBD,M
Boys,109.77,1,Nestor Mendez,Freeport Brazosport,106.59,244.94,161.03,260.82,666.78,Single-ply,SBD,M
Boys,109.77,2,Gabriel García,Yoakum,107.73,281.23,151.95,233.6,666.78,Single-ply,SBD,M
Boys,109.77,3,Jorge Franco,Louise,102.69,247.21,124.74,210.92,582.87,Single-ply,SBD,M
Boys,109.77,4,Louis Brown #2,Beaumont Central,103.06,217.72,129.27,215.46,562.45,Single-ply,SBD,M
Boys,109.77,5,Cristian Vargas,Bay City,105.41,219.99,142.88,199.58,562.45,Single-ply,SBD,M
Boys,109.77,6,Travis Hyatt,Waller,102.47,226.8,113.4,215.46,555.65,Single-ply,SBD,M
Boys,124.74,7,Justin Robertson,Waller,109.86,208.65,122.47,215.46,546.58,Single-ply,SBD,M
Boys,109.77,8,Neal Formolo,Yoakum,108.77,208.65,147.42,181.44,537.51,Single-ply,SBD,M
Boys,109.77,9,Kurtis Williams,Clute Brazoswood,107.77,201.85,129.27,201.85,532.97,Single-ply,SBD,M
Boys,109.77,10,Dwayne Robertson,Beaumont Central,108.68,192.78,111.13,204.12,508.02,Single-ply,SBD,M
Boys,109.77,11,Caleb James,Clute Brazoswood,107.68,192.78,104.33,197.31,494.42,Single-ply,SBD,M
Boys,124.74,12,Lloyd Allums,Beaumont Central,109.95,167.83,129.27,181.44,478.54,Single-ply,SBD,M
Boys,109.77,13,Troy Beckham,Clute Brazoswood,107.86,188.24,133.81,151.95,474,Single-ply,SBD,M
Boys,109.77,14,Daniel Gillis,Beaumont Central,106.5,154.22,124.74,181.44,460.4,Single-ply,SBD,M
Boys,109.77,15,Christian Brown,Danbury,107.55,174.63,102.06,181.44,458.13,Single-ply,SBD,M
Boys,109.77,16,Sam Spicer,Clute Brazoswood,101.11,147.42,117.93,170.1,435.45,Single-ply,SBD,M
Boys,109.77,17,Trevor Hart,Waller,105.14,147.42,79.38,158.76,385.55,Single-ply,SBD,M
Boys,124.74,1,Jimmy LaFata,Clute Brazoswood,112.35,238.14,151.95,215.46,605.55,Single-ply,SBD,M
Boys,124.74,2,Marquez Baker,La Marque,113.22,231.33,111.13,238.14,580.6,Single-ply,SBD,M
Boys,124.74,3,Brady Burrus,Waller,119.66,238.14,120.2,204.12,562.45,Single-ply,SBD,M
Boys,124.74,4,Joseph Wilburn,Bay City,113.49,238.14,102.06,195.04,535.24,Single-ply,SBD,M
Boys,124.74,5,Luis Barron,Danbury,114.53,204.12,122.47,201.85,528.44,Single-ply,SBD,M
Boys,124.74,6,Aymiel Flemming,La Marque,116.98,183.7,138.35,183.7,505.76,Single-ply,SBD,M
Boys,124.74,7,Nick Dowdle,Bay City,117.21,192.78,104.33,197.31,494.42,Single-ply,SBD,M
Boys,124.74,8,Craig Johnson,Beaumont Central,117.89,176.9,113.4,197.31,487.61,Single-ply,SBD,M
Boys,124.74,9,Vistor Guevara,Freeport Brazosport,114.76,190.51,92.99,195.04,478.54,Single-ply,SBD,M
Boys,124.74,10,Devyn Billiot,La Marque,123.2,183.7,102.06,181.44,467.2,Single-ply,SBD,M
Boys,124.74,11,CJ Bench,Clute Brazoswood,112.67,179.17,99.79,154.22,433.18,Single-ply,SBD,M
Boys,124.74,12,Carson Klesel,Yoakum,121.29,149.69,113.4,145.15,408.23,Single-ply,SBD,M
Boys,124.74,13,Victor Esquivel,Clute Brazoswood,113.22,149.69,106.59,149.69,405.97,Single-ply,SBD,M
Boys,124.74,14,Larry Krushall,Wharton,114.31,158.76,102.06,140.61,401.43,Single-ply,SBD,M
Boys,124.74,15,Jaleel Roberts,Wharton,113.85,138.35,108.86,149.69,396.89,Single-ply,SBD,M
Boys,124.74,16,Santos Lazos,Clute Brazoswood,110.27,111.13,63.5,136.08,310.71,Single-ply,SBD,M
Boys,124.74,DQ,David Nunez,Freeport Brazosport,112.85,,,,,Single-ply,SBD,M
Boys,124.74+,1,Cameron Duhon,Freeport Brazosport,161.03,235.87,131.54,244.94,612.35,Single-ply,SBD,M
Boys,124.74+,2,Alton Dilworth,Yoakum,130.91,197.31,104.33,181.44,483.08,Single-ply,SBD,M
Boys,124.74+,3,Domonique Merrell,Waller,129.59,272.16,,,272.16,Single-ply,S,M
Boys,124.74+,4,Alex Pina,Clute Brazoswood,125.69,226.8,,,226.8,Single-ply,S,M
